<?xml version="1.0" encoding="UTF-8"?>
<svg width="80px" height="80px" viewBox="0 0 80 80" version="1.1" xmlns="http://www.w3.org/2000/svg" xmlns:xlink="http://www.w3.org/1999/xlink">
    <title>Icon-1</title>
    <g id="Landing-Page" stroke="none" stroke-width="1" fill="none" fill-rule="evenodd">
        <g id="LandingPage-Web" transform="translate(-782.000000, -1956.000000)">
            <g id="Group-23" transform="translate(0.000000, 1680.000000)">
                <g id="Group-17" transform="translate(0.000000, 69.000000)">
                    <g id="Group-12" transform="translate(732.000000, 207.000000)">
                        <g id="Icon-1" transform="translate(50.000000, 0.000000)">
                            <rect id="Rectangle" x="0" y="0" width="80" height="80"></rect>
                            <g id="Group-8" transform="translate(4.800000, 4.800000)">
                                <rect id="Rectangle" fill="#DADADA" x="0" y="0" width="37.2705882" height="37.2705882" rx="4"></rect>
                                <path d="M30.0235294,41.9294118 C31.4529723,41.9294118 32.6117647,43.0882042 32.6117647,44.5176471 L32.6117647,44.5176471 L32.6117647,67.2941176 C32.6117647,68.7235605 31.4529723,69.8823529 30.0235294,69.8823529 L30.0235294,69.8823529 L7.24705882,69.8823529 C5.81761594,69.8823529 4.65882353,68.7235605 4.65882353,67.2941176 L4.65882353,67.2941176 L4.65882353,44.5176471 C4.65882353,43.0882042 5.81761594,41.9294118 7.24705882,41.9294118 L7.24705882,41.9294118 Z M29.5058824,45.0352941 L7.76470588,45.0352941 L7.76470588,66.7764706 L29.5058824,66.7764706 L29.5058824,45.0352941 Z M30.0235294,4.65882353 C31.4529723,4.65882353 32.6117647,5.81761594 32.6117647,7.24705882 L32.6117647,7.24705882 L32.6117647,30.0235294 C32.6117647,31.4529723 31.4529723,32.6117647 30.0235294,32.6117647 L30.0235294,32.6117647 L7.24705882,32.6117647 C5.81761594,32.6117647 4.65882353,31.4529723 4.65882353,30.0235294 L4.65882353,30.0235294 L4.65882353,7.24705882 C4.65882353,5.81761594 5.81761594,4.65882353 7.24705882,4.65882353 L7.24705882,4.65882353 Z M67.2941176,4.65882353 C68.7235605,4.65882353 69.8823529,5.81761594 69.8823529,7.24705882 L69.8823529,7.24705882 L69.8823529,30.0235294 C69.8823529,31.4529723 68.7235605,32.6117647 67.2941176,32.6117647 L67.2941176,32.6117647 L44.5176471,32.6117647 C43.0882042,32.6117647 41.9294118,31.4529723 41.9294118,30.0235294 L41.9294118,30.0235294 L41.9294118,7.24705882 C41.9294118,5.81761594 43.0882042,4.65882353 44.5176471,4.65882353 L44.5176471,4.65882353 Z M29.5058824,7.76470588 L7.76470588,7.76470588 L7.76470588,29.5058824 L29.5058824,29.5058824 L29.5058824,7.76470588 Z M66.7764706,7.76470588 L45.0352941,7.76470588 L45.0352941,29.5058824 L66.7764706,29.5058824 L66.7764706,7.76470588 Z M21.7411765,12.9411765 C23.1706194,12.9411765 24.3294118,14.0999689 24.3294118,15.5294118 L24.3294118,15.5294118 L24.3294118,21.7411765 C24.3294118,23.1706194 23.1706194,24.3294118 21.7411765,24.3294118 L21.7411765,24.3294118 L15.5294118,24.3294118 C14.0999689,24.3294118 12.9411765,23.1706194 12.9411765,21.7411765 L12.9411765,21.7411765 L12.9411765,15.5294118 C12.9411765,14.0999689 14.0999689,12.9411765 15.5294118,12.9411765 L15.5294118,12.9411765 Z M21.2235294,16.0470588 L16.0470588,16.0470588 L16.0470588,21.2235294 L21.2235294,21.2235294 L21.2235294,16.0470588 Z" id="Combined-Shape" fill="#262626" fill-rule="nonzero"></path>
                                <path d="M68.2323529,54.3529412 C69.0395677,54.3529412 69.7029351,54.9688253 69.7781852,55.7563238 L69.7852941,55.9058824 L69.7852941,68.3294118 C69.7852941,69.1366266 69.16941,69.7999939 68.3819115,69.875244 L68.2323529,69.8823529 L53.8352941,69.8823529 C52.9776284,69.8823529 52.2823529,69.1870775 52.2823529,68.3294118 C52.2823529,67.522197 52.8982371,66.8588296 53.6857355,66.7835795 L53.8352941,66.7764706 L66.6794118,66.7764706 L66.6794118,55.9058824 C66.6794118,55.0986675 67.2952959,54.4353002 68.0827943,54.3600501 L68.2323529,54.3529412 Z M57.8794118,41.9294118 C58.7370775,41.9294118 59.4323529,42.6246872 59.4323529,43.4823529 C59.4323529,44.2895677 58.8164688,44.9529351 58.0289704,45.0281852 L57.8794118,45.0352941 L45.0352941,45.0352941 L45.0352941,55.9058824 C45.0352941,56.7130972 44.41941,57.3764645 43.6319115,57.4517146 L43.4823529,57.4588235 C42.6751381,57.4588235 42.0117708,56.8429394 41.9365207,56.055441 L41.9294118,55.9058824 L41.9294118,43.4823529 C41.9294118,42.6751381 42.5452959,42.0117708 43.3327943,41.9365207 L43.4823529,41.9294118 L57.8794118,41.9294118 Z" id="Combined-Shape" fill="#262626" fill-rule="nonzero"></path>
                            </g>
                        </g>
                    </g>
                </g>
            </g>
        </g>
    </g>
</svg>